<?xml version="1.0" encoding="UTF-8" standalone="no"?>
<!-- Generator: Adobe Illustrator 19.1.0, SVG Export Plug-In . SVG Version: 6.00 Build 0)  -->

<svg
   xmlns:dc="http://purl.org/dc/elements/1.1/"
   xmlns:cc="http://creativecommons.org/ns#"
   xmlns:rdf="http://www.w3.org/1999/02/22-rdf-syntax-ns#"
   xmlns:svg="http://www.w3.org/2000/svg"
   xmlns="http://www.w3.org/2000/svg"
   xmlns:sodipodi="http://sodipodi.sourceforge.net/DTD/sodipodi-0.dtd"
   xmlns:inkscape="http://www.inkscape.org/namespaces/inkscape"
   version="1.1"
   id="Capa_1"
   x="0px"
   y="0px"
   viewBox="0 0 471.701 471.701"
   style="enable-background:new 0 0 471.701 471.701;"
   xml:space="preserve"
   sodipodi:docname="like1.svg"
   inkscape:version="0.92.4 5da689c313, 2019-01-14"><metadata
   id="metadata41"><rdf:RDF><cc:Work
       rdf:about=""><dc:format>image/svg+xml</dc:format><dc:type
         rdf:resource="http://purl.org/dc/dcmitype/StillImage" /><dc:title></dc:title></cc:Work></rdf:RDF></metadata><defs
   id="defs39" /><sodipodi:namedview
   pagecolor="#ffffff"
   bordercolor="#666666"
   borderopacity="1"
   objecttolerance="10"
   gridtolerance="10"
   guidetolerance="10"
   inkscape:pageopacity="0"
   inkscape:pageshadow="2"
   inkscape:window-width="1534"
   inkscape:window-height="906"
   id="namedview37"
   showgrid="false"
   inkscape:zoom="0.50031695"
   inkscape:cx="235.85049"
   inkscape:cy="235.85049"
   inkscape:window-x="0"
   inkscape:window-y="0"
   inkscape:window-maximized="0"
   inkscape:current-layer="Capa_1" />
<g
   id="g4"
   style="fill:#d40000">
	<path
   d="M433.601,67.001c-24.7-24.7-57.4-38.2-92.3-38.2s-67.7,13.6-92.4,38.3l-12.9,12.9l-13.1-13.1   c-24.7-24.7-57.6-38.4-92.5-38.4c-34.8,0-67.6,13.6-92.2,38.2c-24.7,24.7-38.3,57.5-38.2,92.4c0,34.9,13.7,67.6,38.4,92.3   l187.8,187.8c2.6,2.6,6.1,4,9.5,4c3.4,0,6.9-1.3,9.5-3.9l188.2-187.5c24.7-24.7,38.3-57.5,38.3-92.4   C471.801,124.501,458.301,91.701,433.601,67.001z M414.401,232.701l-178.7,178l-178.3-178.3c-19.6-19.6-30.4-45.6-30.4-73.3   s10.7-53.7,30.3-73.2c19.5-19.5,45.5-30.3,73.1-30.3c27.7,0,53.8,10.8,73.4,30.4l22.6,22.6c5.3,5.3,13.8,5.3,19.1,0l22.4-22.4   c19.6-19.6,45.7-30.4,73.3-30.4c27.6,0,53.6,10.8,73.2,30.3c19.6,19.6,30.3,45.6,30.3,73.3   C444.801,187.101,434.001,213.101,414.401,232.701z"
   id="path2"
   style="fill:#d40000" />
</g>
<g
   id="g6">
</g>
<g
   id="g8">
</g>
<g
   id="g10">
</g>
<g
   id="g12">
</g>
<g
   id="g14">
</g>
<g
   id="g16">
</g>
<g
   id="g18">
</g>
<g
   id="g20">
</g>
<g
   id="g22">
</g>
<g
   id="g24">
</g>
<g
   id="g26">
</g>
<g
   id="g28">
</g>
<g
   id="g30">
</g>
<g
   id="g32">
</g>
<g
   id="g34">
</g>
<ellipse
   style="fill:#d40000"
   id="path3755"
   cx="222.85873"
   cy="222.85873"
   rx="124.92081"
   ry="120.92335" /><ellipse
   style="fill:#d40000"
   id="path3757"
   cx="185.88217"
   cy="203.87077"
   rx="25.983528"
   ry="11.992398" /><ellipse
   style="fill:#d40000"
   id="path3759"
   cx="124.92081"
   cy="106.93221"
   rx="104.93348"
   ry="62.960091" /><ellipse
   style="fill:#d40000"
   id="path3761"
   cx="348.7789"
   cy="96.938553"
   rx="56.96389"
   ry="54.965157" /><ellipse
   style="fill:#d40000"
   id="path3763"
   cx="295.81247"
   cy="91.941719"
   rx="37.975925"
   ry="45.97086" /><ellipse
   style="fill:#d40000"
   id="path3765"
   cx="263.83276"
   cy="112.92841"
   rx="35.977196"
   ry="20.986696" /><ellipse
   style="fill:#d40000"
   id="path3767"
   cx="389.75293"
   cy="111.92905"
   rx="47.969593"
   ry="35.977196" /><ellipse
   style="fill:#d40000"
   id="path3769"
   cx="382.75739"
   cy="92.941086"
   rx="42.972759"
   ry="30.980362" /><ellipse
   style="fill:#d40000"
   id="path3771"
   cx="369.76559"
   cy="174.88914"
   rx="83.946785"
   ry="58.962624" /><ellipse
   style="fill:#d40000"
   id="path3773"
   cx="399.74661"
   cy="130.91701"
   rx="49.968327"
   ry="38.975292" /><ellipse
   style="fill:#d40000"
   id="path3775"
   cx="367.76688"
   cy="224.85747"
   rx="59.96199"
   ry="30.980362" /><ellipse
   style="fill:#d40000"
   id="path3777"
   cx="324.12637"
   cy="248.26688"
   rx="90.27462"
   ry="15.565878" /><ellipse
   style="fill:#d40000"
   id="path3779"
   cx="91.941719"
   cy="166.89421"
   rx="67.956924"
   ry="92.941086" /><ellipse
   style="fill:#d40000"
   id="path3781"
   cx="166.89421"
   cy="240.84732"
   rx="118.92461"
   ry="72.953758" /><ellipse
   style="fill:#d40000"
   id="path3783"
   cx="351.77701"
   cy="221.85936"
   rx="43.972126"
   ry="79.949318" /><ellipse
   style="fill:#d40000"
   id="path3785"
   cx="252.83972"
   cy="270.82831"
   rx="104.93348"
   ry="84.946152" /><ellipse
   style="fill:#d40000"
   id="path3787"
   cx="191.87837"
   cy="298.81058"
   rx="71.954391"
   ry="58.962624" /><ellipse
   style="fill:#d40000"
   id="path3789"
   cx="222.85873"
   cy="284.81946"
   rx="60.961357"
   ry="106.93221" /><ellipse
   style="fill:#d40000"
   id="path3791"
   cx="198.87393"
   cy="278.82324"
   rx="70.955025"
   ry="62.960091" /><ellipse
   style="fill:#d40000"
   id="path3793"
   cx="269.82895"
   cy="347.77954"
   rx="35.977196"
   ry="23.984797" /><ellipse
   style="fill:#d40000"
   id="path3795"
   cx="242.84605"
   cy="343.78207"
   rx="26.982895"
   ry="55.964523" /><ellipse
   style="fill:#d40000"
   id="path3797"
   cx="224.78271"
   cy="383.23773"
   rx="10.918284"
   ry="27.463263" /><ellipse
   style="fill:#d40000"
   id="path3799"
   cx="278.82324"
   cy="365.76813"
   rx="22.98543"
   ry="19.987329" /><ellipse
   style="fill:#d40000"
   id="path3801"
   cx="226.78145"
   cy="389.23395"
   rx="8.9195509"
   ry="21.467064" /><circle
   style="fill:#d40000"
   id="path3803"
   cx="223.85809"
   cy="375.76181"
   r="39.974659" /><ellipse
   style="fill:#d40000"
   id="path3805"
   cx="263.758"
   cy="354.2561"
   rx="28.057009"
   ry="56.444893" /></svg>